<?xml version="1.0" encoding="UTF-8"?>
<Project>
   <description></description>
   <name>katalongit</name>
   <tag></tag>
   <UUID>d0addc56-dcc1-4079-a9f3-ea8acc3cf644</UUID>
   <migratedVersion>5.9.0</migratedVersion>
   <pageLoadTimeout>0</pageLoadTimeout>
   <sourceContent>
      <sourceFolderList>
         <sourceFolderConfiguration>
            <url>Include/scripts/groovy</url>
         </sourceFolderConfiguration>
      </sourceFolderList>
      <systemFolderList>
         <systemFolderConfiguration>
            <url>Include/scripts/groovy</url>
         </systemFolderConfiguration>
         <systemFolderConfiguration>
            <url>Include/features</url>
         </systemFolderConfiguration>
         <systemFolderConfiguration>
            <url>Include/config</url>
         </systemFolderConfiguration>
      </systemFolderList>
   </sourceContent>
   <timeStampInProperties>false</timeStampInProperties>
   <type>GENERIC</type>
</Project>
